%!PS-Adobe-3.0 EPSF-3.0
%%Creator: MATLAB, The Mathworks, Inc.
%%Title: C:\Users\Icesatim\Documents\PhD Study\PhD Thesis\Document_My_Works\Figures\RESLT_Biharmonic_Curvedelement\Rate_of_convergence_compare_logplot.ps
%%CreationDate: 06/15/2012  00:54:43
%%DocumentNeededFonts: Helvetica
%%DocumentProcessColors: Cyan Magenta Yellow Black
%%LanguageLevel: 2
%%Pages: 1
%%BoundingBox:    96   238   515   552
%%EndComments

%%BeginProlog
% MathWorks dictionary
/MathWorks 160 dict begin
% definition operators
/bdef {bind def} bind def
/ldef {load def} bind def
/xdef {exch def} bdef
/xstore {exch store} bdef
% operator abbreviations
/c  /clip ldef
/cc /concat ldef
/cp /closepath ldef
/gr /grestore ldef
/gs /gsave ldef
/mt /moveto ldef
/np /newpath ldef
/cm /currentmatrix ldef
/sm /setmatrix ldef
/rm /rmoveto ldef
/rl /rlineto ldef
/s {show newpath} bdef
/sc {setcmykcolor} bdef
/sr /setrgbcolor ldef
/sg /setgray ldef
/w /setlinewidth ldef
/j /setlinejoin ldef
/cap /setlinecap ldef
/rc {rectclip} bdef
/rf {rectfill} bdef
% page state control
/pgsv () def
/bpage {/pgsv save def} bdef
/epage {pgsv restore} bdef
/bplot /gsave ldef
/eplot {stroke grestore} bdef
% orientation switch
/portraitMode 0 def /landscapeMode 1 def /rotateMode 2 def
% coordinate system mappings
/dpi2point 0 def
% font control
/FontSize 0 def
/FMS {/FontSize xstore findfont [FontSize 0 0 FontSize neg 0 0]
  makefont setfont} bdef
/ISOLatin1Encoding where {pop /WindowsLatin1Encoding 256 array bdef
ISOLatin1Encoding WindowsLatin1Encoding copy pop
/.notdef/.notdef/quotesinglbase/florin/quotedblbase/ellipsis/dagger
/daggerdbl/circumflex/perthousand/Scaron/guilsinglleft/OE/.notdef/.notdef
/.notdef/.notdef/quoteleft/quoteright/quotedblleft/quotedblright/bullet
/endash/emdash/tilde/trademark/scaron/guilsinglright/oe/.notdef/.notdef
/Ydieresis WindowsLatin1Encoding 128 32 getinterval astore pop}
{/WindowsLatin1Encoding StandardEncoding bdef} ifelse
/reencode {exch dup where {pop load} {pop StandardEncoding} ifelse
  exch dup 3 1 roll findfont dup length dict begin
  { 1 index /FID ne {def}{pop pop} ifelse } forall
  /Encoding exch def currentdict end definefont pop} bdef
/isroman {findfont /CharStrings get /Agrave known} bdef
/FMSR {3 1 roll 1 index dup isroman {reencode} {pop pop} ifelse
  exch FMS} bdef
/csm {1 dpi2point div -1 dpi2point div scale neg translate
 dup landscapeMode eq {pop -90 rotate}
  {rotateMode eq {90 rotate} if} ifelse} bdef
% line types: solid, dotted, dashed, dotdash
/SO { [] 0 setdash } bdef
/DO { [.5 dpi2point mul 4 dpi2point mul] 0 setdash } bdef
/DA { [6 dpi2point mul] 0 setdash } bdef
/DD { [.5 dpi2point mul 4 dpi2point mul 6 dpi2point mul 4
  dpi2point mul] 0 setdash } bdef
% macros for lines and objects
/L {lineto stroke} bdef
/MP {3 1 roll moveto 1 sub {rlineto} repeat} bdef
/AP {{rlineto} repeat} bdef
/PDlw -1 def
/W {/PDlw currentlinewidth def setlinewidth} def
/PP {closepath eofill} bdef
/DP {closepath stroke} bdef
/MR {4 -2 roll moveto dup  0 exch rlineto exch 0 rlineto
  neg 0 exch rlineto closepath} bdef
/FR {MR stroke} bdef
/PR {MR fill} bdef
/L1i {{currentfile picstr readhexstring pop} image} bdef
/tMatrix matrix def
/MakeOval {newpath tMatrix currentmatrix pop translate scale
0 0 1 0 360 arc tMatrix setmatrix} bdef
/FO {MakeOval stroke} bdef
/PO {MakeOval fill} bdef
/PD {currentlinewidth 2 div 0 360 arc fill
   PDlw -1 eq not {PDlw w /PDlw -1 def} if} def
/FA {newpath tMatrix currentmatrix pop translate scale
  0 0 1 5 -2 roll arc tMatrix setmatrix stroke} bdef
/PA {newpath tMatrix currentmatrix pop	translate 0 0 moveto scale
  0 0 1 5 -2 roll arc closepath tMatrix setmatrix fill} bdef
/FAn {newpath tMatrix currentmatrix pop translate scale
  0 0 1 5 -2 roll arcn tMatrix setmatrix stroke} bdef
/PAn {newpath tMatrix currentmatrix pop translate 0 0 moveto scale
  0 0 1 5 -2 roll arcn closepath tMatrix setmatrix fill} bdef
/vradius 0 def /hradius 0 def /lry 0 def
/lrx 0 def /uly 0 def /ulx 0 def /rad 0 def
/MRR {/vradius xdef /hradius xdef /lry xdef /lrx xdef /uly xdef
  /ulx xdef newpath tMatrix currentmatrix pop ulx hradius add uly
  vradius add translate hradius vradius scale 0 0 1 180 270 arc 
  tMatrix setmatrix lrx hradius sub uly vradius add translate
  hradius vradius scale 0 0 1 270 360 arc tMatrix setmatrix
  lrx hradius sub lry vradius sub translate hradius vradius scale
  0 0 1 0 90 arc tMatrix setmatrix ulx hradius add lry vradius sub
  translate hradius vradius scale 0 0 1 90 180 arc tMatrix setmatrix
  closepath} bdef
/FRR {MRR stroke } bdef
/PRR {MRR fill } bdef
/MlrRR {/lry xdef /lrx xdef /uly xdef /ulx xdef /rad lry uly sub 2 div def
  newpath tMatrix currentmatrix pop ulx rad add uly rad add translate
  rad rad scale 0 0 1 90 270 arc tMatrix setmatrix lrx rad sub lry rad
  sub translate rad rad scale 0 0 1 270 90 arc tMatrix setmatrix
  closepath} bdef
/FlrRR {MlrRR stroke } bdef
/PlrRR {MlrRR fill } bdef
/MtbRR {/lry xdef /lrx xdef /uly xdef /ulx xdef /rad lrx ulx sub 2 div def
  newpath tMatrix currentmatrix pop ulx rad add uly rad add translate
  rad rad scale 0 0 1 180 360 arc tMatrix setmatrix lrx rad sub lry rad
  sub translate rad rad scale 0 0 1 0 180 arc tMatrix setmatrix
  closepath} bdef
/FtbRR {MtbRR stroke } bdef
/PtbRR {MtbRR fill } bdef
/stri 6 array def /dtri 6 array def
/smat 6 array def /dmat 6 array def
/tmat1 6 array def /tmat2 6 array def /dif 3 array def
/asub {/ind2 exch def /ind1 exch def dup dup
  ind1 get exch ind2 get sub exch } bdef
/tri_to_matrix {
  2 0 asub 3 1 asub 4 0 asub 5 1 asub
  dup 0 get exch 1 get 7 -1 roll astore } bdef
/compute_transform {
  dmat dtri tri_to_matrix tmat1 invertmatrix 
  smat stri tri_to_matrix tmat2 concatmatrix } bdef
/ds {stri astore pop} bdef
/dt {dtri astore pop} bdef
/db {2 copy /cols xdef /rows xdef mul dup 3 mul string
  currentfile 
  3 index 0 eq {/ASCIIHexDecode filter}
  {/ASCII85Decode filter 3 index 2 eq {/RunLengthDecode filter} if }
  ifelse exch readstring pop
  dup 0 3 index getinterval /rbmap xdef
  dup 2 index dup getinterval /gbmap xdef
  1 index dup 2 mul exch getinterval /bbmap xdef pop pop}bdef
/it {gs np dtri aload pop moveto lineto lineto cp c
  cols rows 8 compute_transform 
  rbmap gbmap bbmap true 3 colorimage gr}bdef
/il {newpath moveto lineto stroke}bdef
currentdict end def
%%EndProlog

%%BeginSetup
MathWorks begin

0 cap

end
%%EndSetup

%%Page: 1 1
%%BeginPageSetup
%%PageBoundingBox:    96   238   515   552
MathWorks begin
bpage
%%EndPageSetup

%%BeginObject: obj1
bplot

/dpi2point 12 def
portraitMode 1152 6624 csm

    0     0  5039  3762 rc
88 dict begin %Colortable dictionary
/c0 { 0.000000 0.000000 0.000000 sr} bdef
/c1 { 1.000000 1.000000 1.000000 sr} bdef
/c2 { 0.900000 0.000000 0.000000 sr} bdef
/c3 { 0.000000 0.820000 0.000000 sr} bdef
/c4 { 0.000000 0.000000 0.800000 sr} bdef
/c5 { 0.910000 0.820000 0.320000 sr} bdef
/c6 { 1.000000 0.260000 0.820000 sr} bdef
/c7 { 0.000000 0.820000 0.820000 sr} bdef
c0
1 j
1 sg
   0    0 5040 3763 rf
6 w
0 3066 3905 0 0 -3066 655 3348 4 MP
PP
-3905 0 0 3066 3905 0 0 -3066 655 3348 5 MP stroke
4 w
DO
SO
6 w
0 sg
 655  282 mt 4560  282 L
 655 3348 mt 4560 3348 L
4560 3348 mt 4560  282 L
 655 3348 mt  655  282 L
 655 3348 mt 4560 3348 L
 655 3348 mt  655  282 L
 655 3348 mt  655 3308 L
 655  282 mt  655  321 L
%%IncludeResource: font Helvetica
/Helvetica /WindowsLatin1Encoding 120 FMSR

 502 3493 mt 
(-1.8) s
1212 3348 mt 1212 3308 L
1212  282 mt 1212  321 L
1059 3493 mt 
(-1.6) s
1770 3348 mt 1770 3308 L
1770  282 mt 1770  321 L
1617 3493 mt 
(-1.4) s
2328 3348 mt 2328 3308 L
2328  282 mt 2328  321 L
2175 3493 mt 
(-1.2) s
2886 3348 mt 2886 3308 L
2886  282 mt 2886  321 L
2783 3493 mt 
(-1) s
3444 3348 mt 3444 3308 L
3444  282 mt 3444  321 L
3291 3493 mt 
(-0.8) s
4002 3348 mt 4002 3308 L
4002  282 mt 4002  321 L
3849 3493 mt 
(-0.6) s
4560 3348 mt 4560 3308 L
4560  282 mt 4560  321 L
4407 3493 mt 
(-0.4) s
 655 3348 mt  694 3348 L
4560 3348 mt 4520 3348 L
 417 3392 mt 
(-10) s
 655 2910 mt  694 2910 L
4560 2910 mt 4520 2910 L
 484 2954 mt 
(-9) s
 655 2472 mt  694 2472 L
4560 2472 mt 4520 2472 L
 484 2516 mt 
(-8) s
 655 2034 mt  694 2034 L
4560 2034 mt 4520 2034 L
 484 2078 mt 
(-7) s
 655 1596 mt  694 1596 L
4560 1596 mt 4520 1596 L
 484 1640 mt 
(-6) s
 655 1158 mt  694 1158 L
4560 1158 mt 4520 1158 L
 484 1202 mt 
(-5) s
 655  720 mt  694  720 L
4560  720 mt 4520  720 L
 484  764 mt 
(-4) s
 655  282 mt  694  282 L
4560  282 mt 4520  282 L
 484  326 mt 
(-3) s
 655  282 mt 4560  282 L
 655 3348 mt 4560 3348 L
4560 3348 mt 4560  282 L
 655 3348 mt  655  282 L
gs 655 282 3906 3067 rc
/c8 { 0.000000 0.000000 1.000000 sr} bdef
c8
-814 95 -1042 12 -577 121 -686 221 4301 389 5 MP stroke
gs 1109 316 3266 596 rc
4265  389 mt 4337  389 L
4301  353 mt 4301  425 L
3579  610 mt 3651  610 L
3615  574 mt 3615  646 L
3002  731 mt 3074  731 L
3038  695 mt 3038  767 L
1960  743 mt 2032  743 L
1996  707 mt 1996  779 L
1146  838 mt 1218  838 L
1182  802 mt 1182  874 L
4276  364 mt 4326  414 L
4326  364 mt 4276  414 L
3590  585 mt 3640  635 L
3640  585 mt 3590  635 L
3013  706 mt 3063  756 L
3063  706 mt 3013  756 L
1971  718 mt 2021  768 L
2021  718 mt 1971  768 L
1157  813 mt 1207  863 L
1207  813 mt 1157  863 L
gr

/c9 { 0.000000 0.500000 0.000000 sr} bdef
c9
-814 639 -1042 1296 -577 259 -686 255 4301 653 5 MP stroke
gs 1109 580 3266 2596 rc
  36   36 4301  653 FO
  36   36 3615  908 FO
  36   36 3038 1167 FO
  36   36 1996 2463 FO
  36   36 1182 3102 FO
gr

gr

c9
/c10 { 1.000000 1.000000 0.933333 sr} bdef
c10
-558 0 0 -316 558 0 3703 352 4 MP
PP
0 j
0.8 sg
3703   36  558  316 rectstroke
1 j
0 sg
%%IncludeResource: font Helvetica
/Helvetica /WindowsLatin1Encoding 96 FMSR

3751  173 mt 
(X: -0.4928) s
3810  283 mt 
(Y: -3.246) s
24 w
gs 4155 243 293 293 rc
0 j
0 -94 -94 0 0 94 94 0 4254 342 5 MP
gs
PP
gr
/c11 { 1.000000 1.000000 0.862745 sr} bdef
c11
DP
gr

c11
c10
-504 0 0 -316 504 0 635 802 4 MP
PP
6 w
0 j
0.8 sg
 635  486  504  316 rectstroke
1 j
0 sg
 683  623 mt 
(X: -1.611) s
 688  733 mt 
(Y: -4.271) s
24 w
gs 1036 692 293 293 rc
0 j
0 -94 -94 0 0 94 94 0 1135 791 5 MP
gs
PP
gr
c11
DP
gr

c11
c10
-504 0 0 -316 504 0 635 3067 4 MP
PP
6 w
0 j
0.8 sg
 635 2751  504  316 rectstroke
1 j
0 sg
 683 2888 mt 
(X: -1.611) s
 688 2998 mt 
(Y: -9.439) s
24 w
gs 1036 2956 293 293 rc
0 j
0 -94 -94 0 0 94 94 0 1135 3055 5 MP
gs
PP
gr
c11
DP
gr

c11
c10
-558 0 0 -316 558 0 3703 1013 4 MP
PP
6 w
0 j
0.8 sg
3703  697  558  316 rectstroke
1 j
0 sg
3751  834 mt 
(X: -0.4928) s
3810  944 mt 
(Y: -3.848) s
24 w
gs 4155 507 293 293 rc
0 j
0 -94 -94 0 0 94 94 0 4254 606 5 MP
gs
PP
gr
c11
DP
gr

c11
0 sg
%%IncludeResource: font Helvetica
/Helvetica /WindowsLatin1Encoding 120 FMSR

2455 3636 mt 
(log\(h\)) s
 335 2153 mt  -90 rotate
(log\(L) s
90 rotate
%%IncludeResource: font Helvetica
/Helvetica /WindowsLatin1Encoding 96 FMSR

 275 1887 mt  -90 rotate
(2) s
90 rotate
%%IncludeResource: font Helvetica
/Helvetica /WindowsLatin1Encoding 120 FMSR

 335 1834 mt  -90 rotate
(-error\)) s
90 rotate
6 w
1 sg
0 378 1376 0 0 -378 3055 3180 4 MP
PP
-1376 0 0 378 1376 0 0 -378 3055 3180 5 MP stroke
4 w
DO
SO
6 w
0 sg
3055 2802 mt 4431 2802 L
3055 3180 mt 4431 3180 L
4431 3180 mt 4431 2802 L
3055 3180 mt 3055 2802 L
3055 3180 mt 4431 3180 L
3055 3180 mt 3055 2802 L
3055 2802 mt 4431 2802 L
3055 3180 mt 4431 3180 L
4431 3180 mt 4431 2802 L
3055 3180 mt 3055 2802 L
3523 2949 mt 
(Straight element) s
gs 3055 2802 1377 379 rc
c8
360 0 3126 2907 2 MP stroke
gr

c8
3270 2907 mt 3342 2907 L
3306 2871 mt 3306 2943 L
3281 2882 mt 3331 2932 L
3331 2882 mt 3281 2932 L
gs 3055 2802 1377 379 rc
gr

0 sg
3523 3118 mt 
(Curved element) s
gs 3055 2802 1377 379 rc
c9
360 0 3126 3075 2 MP stroke
gr

c9
  36   36 3306 3075 FO
gs 3055 2802 1377 379 rc
gr


end %%Color Dict

eplot
%%EndObject

epage
end

showpage

%%Trailer
%%EOF
