%!PS-Adobe-3.0 EPSF-3.0
%%Creator: MATLAB, The Mathworks, Inc. Version 7.8.0.347 (R2009a). Operating System: Linux 2.6.9-89.33.1.ELsmp #1 SMP Thu Dec 2 01:05:15 CST 2010 i686.
%%Title: /home/wassamon/BellShapeFns/shape11.eps
%%CreationDate: 09/18/2012  15:13:29
%%DocumentNeededFonts: Helvetica
%%DocumentProcessColors: Cyan Magenta Yellow Black
%%LanguageLevel: 2
%%Pages: 1
%%BoundingBox:    73   252   521   589
%%EndComments

%%BeginProlog
% MathWorks dictionary
/MathWorks 160 dict begin
% definition operators
/bdef {bind def} bind def
/ldef {load def} bind def
/xdef {exch def} bdef
/xstore {exch store} bdef
% operator abbreviations
/c  /clip ldef
/cc /concat ldef
/cp /closepath ldef
/gr /grestore ldef
/gs /gsave ldef
/mt /moveto ldef
/np /newpath ldef
/cm /currentmatrix ldef
/sm /setmatrix ldef
/rm /rmoveto ldef
/rl /rlineto ldef
/s {show newpath} bdef
/sc {setcmykcolor} bdef
/sr /setrgbcolor ldef
/sg /setgray ldef
/w /setlinewidth ldef
/j /setlinejoin ldef
/cap /setlinecap ldef
/rc {rectclip} bdef
/rf {rectfill} bdef
% page state control
/pgsv () def
/bpage {/pgsv save def} bdef
/epage {pgsv restore} bdef
/bplot /gsave ldef
/eplot {stroke grestore} bdef
% orientation switch
/portraitMode 0 def /landscapeMode 1 def /rotateMode 2 def
% coordinate system mappings
/dpi2point 0 def
% font control
/FontSize 0 def
/FMS {/FontSize xstore findfont [FontSize 0 0 FontSize neg 0 0]
  makefont setfont} bdef
/reencode {exch dup where {pop load} {pop StandardEncoding} ifelse
  exch dup 3 1 roll findfont dup length dict begin
  { 1 index /FID ne {def}{pop pop} ifelse } forall
  /Encoding exch def currentdict end definefont pop} bdef
/isroman {findfont /CharStrings get /Agrave known} bdef
/FMSR {3 1 roll 1 index dup isroman {reencode} {pop pop} ifelse
  exch FMS} bdef
/csm {1 dpi2point div -1 dpi2point div scale neg translate
 dup landscapeMode eq {pop -90 rotate}
  {rotateMode eq {90 rotate} if} ifelse} bdef
% line types: solid, dotted, dashed, dotdash
/SO { [] 0 setdash } bdef
/DO { [.5 dpi2point mul 4 dpi2point mul] 0 setdash } bdef
/DA { [6 dpi2point mul] 0 setdash } bdef
/DD { [.5 dpi2point mul 4 dpi2point mul 6 dpi2point mul 4
  dpi2point mul] 0 setdash } bdef
% macros for lines and objects
/L {lineto stroke} bdef
/MP {3 1 roll moveto 1 sub {rlineto} repeat} bdef
/AP {{rlineto} repeat} bdef
/PDlw -1 def
/W {/PDlw currentlinewidth def setlinewidth} def
/PP {closepath eofill} bdef
/DP {closepath stroke} bdef
/MR {4 -2 roll moveto dup  0 exch rlineto exch 0 rlineto
  neg 0 exch rlineto closepath} bdef
/FR {MR stroke} bdef
/PR {MR fill} bdef
/L1i {{currentfile picstr readhexstring pop} image} bdef
/tMatrix matrix def
/MakeOval {newpath tMatrix currentmatrix pop translate scale
0 0 1 0 360 arc tMatrix setmatrix} bdef
/FO {MakeOval stroke} bdef
/PO {MakeOval fill} bdef
/PD {currentlinewidth 2 div 0 360 arc fill
   PDlw -1 eq not {PDlw w /PDlw -1 def} if} def
/FA {newpath tMatrix currentmatrix pop translate scale
  0 0 1 5 -2 roll arc tMatrix setmatrix stroke} bdef
/PA {newpath tMatrix currentmatrix pop	translate 0 0 moveto scale
  0 0 1 5 -2 roll arc closepath tMatrix setmatrix fill} bdef
/FAn {newpath tMatrix currentmatrix pop translate scale
  0 0 1 5 -2 roll arcn tMatrix setmatrix stroke} bdef
/PAn {newpath tMatrix currentmatrix pop translate 0 0 moveto scale
  0 0 1 5 -2 roll arcn closepath tMatrix setmatrix fill} bdef
/vradius 0 def /hradius 0 def /lry 0 def
/lrx 0 def /uly 0 def /ulx 0 def /rad 0 def
/MRR {/vradius xdef /hradius xdef /lry xdef /lrx xdef /uly xdef
  /ulx xdef newpath tMatrix currentmatrix pop ulx hradius add uly
  vradius add translate hradius vradius scale 0 0 1 180 270 arc 
  tMatrix setmatrix lrx hradius sub uly vradius add translate
  hradius vradius scale 0 0 1 270 360 arc tMatrix setmatrix
  lrx hradius sub lry vradius sub translate hradius vradius scale
  0 0 1 0 90 arc tMatrix setmatrix ulx hradius add lry vradius sub
  translate hradius vradius scale 0 0 1 90 180 arc tMatrix setmatrix
  closepath} bdef
/FRR {MRR stroke } bdef
/PRR {MRR fill } bdef
/MlrRR {/lry xdef /lrx xdef /uly xdef /ulx xdef /rad lry uly sub 2 div def
  newpath tMatrix currentmatrix pop ulx rad add uly rad add translate
  rad rad scale 0 0 1 90 270 arc tMatrix setmatrix lrx rad sub lry rad
  sub translate rad rad scale 0 0 1 270 90 arc tMatrix setmatrix
  closepath} bdef
/FlrRR {MlrRR stroke } bdef
/PlrRR {MlrRR fill } bdef
/MtbRR {/lry xdef /lrx xdef /uly xdef /ulx xdef /rad lrx ulx sub 2 div def
  newpath tMatrix currentmatrix pop ulx rad add uly rad add translate
  rad rad scale 0 0 1 180 360 arc tMatrix setmatrix lrx rad sub lry rad
  sub translate rad rad scale 0 0 1 0 180 arc tMatrix setmatrix
  closepath} bdef
/FtbRR {MtbRR stroke } bdef
/PtbRR {MtbRR fill } bdef
/stri 6 array def /dtri 6 array def
/smat 6 array def /dmat 6 array def
/tmat1 6 array def /tmat2 6 array def /dif 3 array def
/asub {/ind2 exch def /ind1 exch def dup dup
  ind1 get exch ind2 get sub exch } bdef
/tri_to_matrix {
  2 0 asub 3 1 asub 4 0 asub 5 1 asub
  dup 0 get exch 1 get 7 -1 roll astore } bdef
/compute_transform {
  dmat dtri tri_to_matrix tmat1 invertmatrix 
  smat stri tri_to_matrix tmat2 concatmatrix } bdef
/ds {stri astore pop} bdef
/dt {dtri astore pop} bdef
/db {2 copy /cols xdef /rows xdef mul dup 3 mul string
  currentfile 
  3 index 0 eq {/ASCIIHexDecode filter}
  {/ASCII85Decode filter 3 index 2 eq {/RunLengthDecode filter} if }
  ifelse exch readstring pop
  dup 0 3 index getinterval /rbmap xdef
  dup 2 index dup getinterval /gbmap xdef
  1 index dup 2 mul exch getinterval /bbmap xdef pop pop}bdef
/it {gs np dtri aload pop moveto lineto lineto cp c
  cols rows 8 compute_transform 
  rbmap gbmap bbmap true 3 colorimage gr}bdef
/il {newpath moveto lineto stroke}bdef
currentdict end def
%%EndProlog

%%BeginSetup
MathWorks begin

0 cap

end
%%EndSetup

%%Page: 1 1
%%BeginPageSetup
%%PageBoundingBox:    73   252   521   589
MathWorks begin
bpage
%%EndPageSetup

%%BeginObject: obj1
bplot

/dpi2point 12 def
portraitMode 0876 7068 csm

    0     0  5376  4034 rc
85 dict begin %Colortable dictionary
/c0 { 0.000000 0.000000 0.000000 sr} bdef
/c1 { 1.000000 1.000000 1.000000 sr} bdef
/c2 { 0.900000 0.000000 0.000000 sr} bdef
/c3 { 0.000000 0.820000 0.000000 sr} bdef
/c4 { 0.000000 0.000000 0.800000 sr} bdef
/c5 { 0.910000 0.820000 0.320000 sr} bdef
/c6 { 1.000000 0.260000 0.820000 sr} bdef
/c7 { 0.000000 0.820000 0.820000 sr} bdef
c0
1 j
1 sg
   0    0 5377 4035 rf
6 w
0 1877 -2065 -712 0 -1876 4865 2890 4 MP
PP
2065 711 0 1877 -2065 -712 0 -1876 4865 2890 5 MP stroke
2065 711 2101 -699 -2064 -711 2763 3589 4 MP
PP
-2102 699 2065 711 2101 -699 -2064 -711 2763 3589 5 MP stroke
0 1877 2101 -700 0 -1876 699 2878 4 MP
PP
-2101 699 0 1877 2101 -700 0 -1876 699 2878 5 MP stroke
4 w
DO
0 sg
2763 3589 mt  699 2878 L
 699 2878 mt  699 1002 L
3289 3415 mt 1224 2703 L
1224 2703 mt 1224  827 L
3814 3240 mt 1749 2528 L
1749 2528 mt 1749  652 L
4339 3065 mt 2274 2354 L
2274 2354 mt 2274  477 L
4865 2890 mt 2800 2179 L
2800 2179 mt 2800  302 L
2763 3589 mt 4865 2890 L
4865 2890 mt 4865 1014 L
2350 3447 mt 4452 2748 L
4452 2748 mt 4452  872 L
1937 3305 mt 4039 2606 L
4039 2606 mt 4039  729 L
1524 3163 mt 3626 2463 L
3626 2463 mt 3626  587 L
1111 3020 mt 3213 2321 L
3213 2321 mt 3213  445 L
 699 2878 mt 2800 2179 L
2800 2179 mt 2800  302 L
 699 2878 mt 2800 2179 L
2800 2179 mt 4865 2890 L
 699 2503 mt 2800 1803 L
2800 1803 mt 4865 2515 L
 699 2127 mt 2800 1428 L
2800 1428 mt 4865 2140 L
 699 1752 mt 2800 1053 L
2800 1053 mt 4865 1765 L
 699 1377 mt 2800  678 L
2800  678 mt 4865 1389 L
 699 1002 mt 2800  302 L
2800  302 mt 4865 1014 L
SO
6 w
2763 3589 mt 4865 2890 L
2763 3589 mt  699 2878 L
 699 2878 mt  699 1002 L
2763 3589 mt 2816 3608 L
%%IncludeResource: font Helvetica
/Helvetica /ISOLatin1Encoding 120 FMSR

2848 3730 mt 
(0) s
3289 3415 mt 3341 3433 L
3374 3555 mt 
(0.5) s
3814 3240 mt 3866 3258 L
3899 3380 mt 
(1) s
4339 3065 mt 4392 3083 L
4424 3205 mt 
(1.5) s
4865 2890 mt 4917 2908 L
4950 3031 mt 
(2) s
2763 3589 mt 2711 3607 L
2612 3729 mt 
(0) s
2350 3447 mt 2298 3465 L
2099 3587 mt 
(0.1) s
1937 3305 mt 1885 3322 L
1686 3444 mt 
(0.2) s
1524 3163 mt 1472 3180 L
1273 3302 mt 
(0.3) s
1111 3020 mt 1059 3038 L
 860 3160 mt 
(0.4) s
 699 2878 mt  646 2895 L
 447 3017 mt 
(0.5) s
 699 2878 mt  646 2860 L
 547 2893 mt 
(0) s
 699 2503 mt  646 2485 L
 447 2517 mt 
(0.2) s
 699 2127 mt  646 2109 L
 447 2142 mt 
(0.4) s
 699 1752 mt  646 1734 L
 447 1767 mt 
(0.6) s
 699 1377 mt  646 1359 L
 447 1392 mt 
(0.8) s
 699 1002 mt  646  984 L
 547 1016 mt 
(1) s
gs 699 302 4167 3288 rc
/c8 { 0.000000 0.000000 0.562500 sr} bdef
c8
234 -78 229 101 4402 2867 3 MP
PP
0 sg
-463 -23 234 -78 229 101 4402 2867 4 MP stroke
/c9 { 0.000000 0.000000 0.687500 sr} bdef
c9
233 -78 230 145 4168 2901 3 MP
PP
0 sg
-463 -67 233 -78 230 145 4168 2901 4 MP stroke
c8
-234 34 -229 -101 4631 2968 3 MP
PP
0 sg
463 67 -234 34 -229 -101 4631 2968 4 MP stroke
c9
-463 -123 234 -34 4168 2901 3 MP
PP
0 sg
229 157 -463 -123 234 -34 4168 2901 4 MP stroke
c8
-463 -88 234 -77 4164 3123 3 MP
PP
0 sg
229 165 -463 -88 234 -77 4164 3123 4 MP stroke
c8
-233 57 -230 -145 4398 3046 3 MP
PP
0 sg
463 88 -233 57 -230 -145 4398 3046 4 MP stroke
c9
-229 -157 233 -57 3935 2958 3 MP
PP
0 sg
-4 214 -229 -157 233 -57 3935 2958 4 MP stroke
c9
233 -78 -4 243 3935 2958 3 MP
PP
0 sg
-229 -165 233 -78 -4 243 3935 2958 4 MP stroke
/c10 { 0.000000 0.125000 1.000000 sr} bdef
c10
-463 -252 234 51 3705 2693 3 MP
PP
0 sg
229 201 -463 -252 234 51 3705 2693 4 MP stroke
/c11 { 0.000000 0.000000 0.812500 sr} bdef
c11
230 265 -234 -51 3939 2744 3 MP
PP
0 sg
4 -214 230 265 -234 -51 3939 2744 4 MP stroke
c9
230 168 -234 75 3935 2958 3 MP
PP
0 sg
4 -243 230 168 -234 75 3935 2958 4 MP stroke
c10
463 238 -233 27 3705 2693 3 MP
PP
0 sg
-230 -265 463 238 -233 27 3705 2693 4 MP stroke
c9
229 313 -463 -238 3935 2958 3 MP
PP
0 sg
234 -75 229 313 -463 -238 3935 2958 4 MP stroke
c8
-463 -80 234 -78 3697 3279 3 MP
PP
0 sg
229 158 -463 -80 234 -78 3697 3279 4 MP stroke
c8
-233 88 -230 -168 3931 3201 3 MP
PP
0 sg
463 80 -233 88 -230 -168 3931 3201 4 MP stroke
/c12 { 0.000000 0.250000 1.000000 sr} bdef
c12
-229 -201 233 -27 3472 2720 3 MP
PP
0 sg
-4 228 -229 -201 233 -27 3472 2720 4 MP stroke
/c13 { 0.000000 0.000000 0.750000 sr} bdef
c13
-4 401 -229 -313 3701 3033 3 MP
PP
0 sg
233 -88 -4 401 -229 -313 3701 3033 4 MP stroke
c9
233 -77 230 141 3234 3215 3 MP
PP
0 sg
-463 -64 233 -77 230 141 3234 3215 4 MP stroke
c8
-234 94 -229 -158 3697 3279 3 MP
PP
0 sg
463 64 -234 94 -229 -158 3697 3279 4 MP stroke
/c14 { 0.125000 1.000000 0.875000 sr} bdef
c14
234 124 229 227 3013 2141 3 MP
PP
0 sg
-463 -351 234 124 229 227 3013 2141 4 MP stroke
/c15 { 0.000000 0.375000 1.000000 sr} bdef
c15
230 352 -234 -124 3476 2492 3 MP
PP
0 sg
4 -228 230 352 -234 -124 3476 2492 4 MP stroke
/c16 { 0.000000 0.187500 1.000000 sr} bdef
c16
-230 -352 234 -85 3238 2805 3 MP
PP
0 sg
-4 437 -230 -352 234 -85 3238 2805 4 MP stroke
c12
230 316 -234 85 3472 2720 3 MP
PP
0 sg
4 -401 230 316 -234 85 3472 2720 4 MP stroke
c10
-230 -316 463 195 3005 2926 3 MP
PP
0 sg
-233 121 -230 -316 463 195 3005 2926 4 MP stroke
c10
234 -94 229 289 3005 2926 3 MP
PP
0 sg
-463 -195 234 -94 229 289 3005 2926 4 MP stroke
c8
-463 -44 234 -78 3230 3434 3 MP
PP
0 sg
229 122 -463 -44 234 -78 3230 3434 4 MP stroke
c8
-233 97 -230 -141 3464 3356 3 MP
PP
0 sg
463 44 -233 97 -230 -141 3464 3356 4 MP stroke
/c17 { 0.000000 0.812500 1.000000 sr} bdef
c17
229 416 -233 21 3242 2368 3 MP
PP
0 sg
4 -437 229 416 -233 21 3242 2368 4 MP stroke
/c18 { 0.625000 1.000000 0.375000 sr} bdef
c18
233 -21 230 400 2779 1989 3 MP
PP
0 sg
-463 -379 233 -21 230 400 2779 1989 4 MP stroke
c17
-234 -152 -229 -227 3242 2368 3 MP
PP
0 sg
463 379 -234 -152 -229 -227 3242 2368 4 MP stroke
c17
-229 -416 463 298 2775 2507 3 MP
PP
0 sg
-234 118 -229 -416 463 298 2775 2507 4 MP stroke
c17
233 -121 230 419 2775 2507 3 MP
PP
0 sg
-463 -298 233 -121 230 419 2775 2507 4 MP stroke
c10
233 -97 -4 386 3005 2926 3 MP
PP
0 sg
-229 -289 233 -97 -4 386 3005 2926 4 MP stroke
/c19 { 0.000000 0.000000 0.625000 sr} bdef
c19
233 -78 -4 200 3001 3312 3 MP
PP
0 sg
-229 -122 233 -78 -4 200 3001 3312 4 MP stroke
c18
-463 -390 234 152 2779 1989 3 MP
PP
0 sg
229 238 -463 -390 234 152 2779 1989 4 MP stroke
/c20 { 0.000000 0.937500 1.000000 sr} bdef
c20
-4 518 -230 -400 3009 2389 3 MP
PP
0 sg
234 -118 -4 518 -230 -400 3009 2389 4 MP stroke
/c21 { 0.000000 0.000000 1.000000 sr} bdef
c21
4 -386 230 251 2771 3061 3 MP
PP
0 sg
-234 135 4 -386 230 251 2771 3061 4 MP stroke
c21
-230 -419 234 -135 2771 3061 3 MP
PP
0 sg
-4 554 -230 -419 234 -135 2771 3061 4 MP stroke
c19
230 107 -234 93 3001 3312 3 MP
PP
0 sg
4 -200 230 107 -234 93 3001 3312 4 MP stroke
c19
-233 128 -230 -251 3001 3312 3 MP
PP
0 sg
463 123 -233 128 -230 -251 3001 3312 4 MP stroke
/c22 { 0.000000 0.000000 0.875000 sr} bdef
c22
234 -93 229 216 2538 3189 3 MP
PP
0 sg
-463 -123 234 -93 229 216 2538 3189 4 MP stroke
c8
-463 -23 234 -77 2763 3589 3 MP
PP
0 sg
229 100 -463 -23 234 -77 2763 3589 4 MP stroke
c8
-233 84 -230 -107 2997 3512 3 MP
PP
0 sg
463 23 -233 84 -230 -107 2997 3512 4 MP stroke
/c23 { 0.687500 1.000000 0.312500 sr} bdef
c23
-229 -238 233 -49 2546 2038 3 MP
PP
0 sg
-4 287 -229 -238 233 -49 2546 2038 4 MP stroke
c18
229 469 -233 49 2779 1989 3 MP
PP
0 sg
4 -518 229 469 -233 49 2779 1989 4 MP stroke
c17
229 473 -462 -306 2775 2507 3 MP
PP
0 sg
233 -167 229 473 -462 -306 2775 2507 4 MP stroke
c23
462 306 -233 163 2546 2038 3 MP
PP
0 sg
-229 -469 462 306 -233 163 2546 2038 4 MP stroke
/c24 { 0.000000 0.625000 1.000000 sr} bdef
c24
4 -554 229 387 2542 2674 3 MP
PP
0 sg
-233 167 4 -554 229 387 2542 2674 4 MP stroke
c21
-233 166 -229 -387 2771 3061 3 MP
PP
0 sg
462 221 -233 166 -229 -387 2771 3061 4 MP stroke
/c25 { 0.000000 0.437500 1.000000 sr} bdef
c25
233 -128 229 349 2309 2840 3 MP
PP
0 sg
-462 -221 233 -128 229 349 2309 2840 4 MP stroke
c11
233 -84 230 201 2304 3288 3 MP
PP
0 sg
-463 -117 233 -84 230 201 2304 3288 4 MP stroke
c11
-229 -216 463 117 2304 3288 3 MP
PP
0 sg
-234 99 -229 -216 463 117 2304 3288 4 MP stroke
/c26 { 0.937500 1.000000 0.062500 sr} bdef
c26
230 227 -463 -351 2550 1751 3 MP
PP
0 sg
233 124 230 227 -463 -351 2550 1751 4 MP stroke
c26
229 411 -233 -124 2550 1751 3 MP
PP
0 sg
4 -287 229 411 -233 -124 2550 1751 4 MP stroke
/c27 { 0.500000 1.000000 0.500000 sr} bdef
c27
-229 -411 233 -163 2313 2201 3 MP
PP
0 sg
-4 574 -229 -411 233 -163 2313 2201 4 MP stroke
c25
-229 -473 233 -166 2309 2840 3 MP
PP
0 sg
-4 639 -229 -473 233 -166 2309 2840 4 MP stroke
c11
-229 -349 234 -99 2304 3288 3 MP
PP
0 sg
-5 448 -229 -349 234 -99 2304 3288 4 MP stroke
/c28 { 1.000000 0.312500 0.000000 sr} bdef
c28
463 279 -233 -52 2087 1400 3 MP
PP
0 sg
-230 -227 463 279 -233 -52 2087 1400 4 MP stroke
/c29 { 1.000000 0.625000 0.000000 sr} bdef
c29
229 379 -463 -279 2317 1627 3 MP
PP
0 sg
234 -100 229 379 -463 -279 2317 1627 4 MP stroke
c27
-234 100 4 -574 2313 2201 3 MP
PP
0 sg
230 474 -234 100 4 -574 2313 2201 4 MP stroke
/c30 { 1.000000 0.937500 0.000000 sr} bdef
c30
234 -193 229 477 1850 1917 3 MP
PP
0 sg
-463 -284 234 -193 229 477 1850 1917 4 MP stroke
/c31 { 1.000000 0.687500 0.000000 sr} bdef
c31
463 284 -233 190 2083 1727 3 MP
PP
0 sg
-230 -474 463 284 -233 190 2083 1727 4 MP stroke
c27
230 446 -234 193 2313 2201 3 MP
PP
0 sg
4 -639 230 446 -234 193 2313 2201 4 MP stroke
c15
-230 -446 234 -119 2075 2959 3 MP
PP
0 sg
-4 565 -230 -446 234 -119 2075 2959 4 MP stroke
c11
-234 119 5 -448 2304 3288 3 MP
PP
0 sg
229 329 -234 119 5 -448 2304 3288 4 MP stroke
/c32 { 1.000000 0.062500 0.000000 sr} bdef
c32
-463 -252 233 52 1854 1348 3 MP
PP
0 sg
230 200 -463 -252 233 52 1854 1348 4 MP stroke
c31
-234 142 -229 -379 2083 1727 3 MP
PP
0 sg
463 237 -234 142 -229 -379 2083 1727 4 MP stroke
/c33 { 1.000000 0.187500 0.000000 sr} bdef
c33
233 -190 230 427 1620 1490 3 MP
PP
0 sg
-463 -237 233 -190 230 427 1620 1490 4 MP stroke
c26
233 -135 230 467 1616 2062 3 MP
PP
0 sg
-463 -332 233 -135 230 467 1616 2062 4 MP stroke
c30
463 332 -234 145 1850 1917 3 MP
PP
0 sg
-229 -477 463 332 -234 145 1850 1917 4 MP stroke
/c34 { 0.250000 1.000000 0.750000 sr} bdef
c34
229 430 -233 135 2079 2394 3 MP
PP
0 sg
4 -565 229 430 -233 135 2079 2394 4 MP stroke
c33
-230 -200 234 -142 1620 1490 3 MP
PP
0 sg
-4 342 -230 -200 234 -142 1620 1490 4 MP stroke
c33
234 -145 -4 572 1620 1490 3 MP
PP
0 sg
-230 -427 234 -145 -4 572 1620 1490 4 MP stroke
/c35 { 0.750000 0.000000 0.000000 sr} bdef
c35
230 157 -463 -123 1624 1148 3 MP
PP
0 sg
233 -34 230 157 -463 -123 1624 1148 4 MP stroke
c35
229 308 -233 34 1624 1148 3 MP
PP
0 sg
4 -342 229 308 -233 34 1624 1148 4 MP stroke
c33
229 429 -233 143 1620 1490 3 MP
PP
0 sg
4 -572 229 429 -233 143 1620 1490 4 MP stroke
c33
-234 121 -229 -308 1620 1490 3 MP
PP
0 sg
463 187 -234 121 -229 -308 1620 1490 4 MP stroke
c35
233 -143 230 330 1157 1303 3 MP
PP
0 sg
-463 -187 233 -143 230 330 1157 1303 4 MP stroke
c35
-463 -80 234 -121 1157 1303 3 MP
PP
0 sg
229 201 -463 -80 234 -121 1157 1303 4 MP stroke
/c36 { 0.500000 0.000000 0.000000 sr} bdef
c36
-230 -157 463 80 928 1102 3 MP
PP
0 sg
-233 77 -230 -157 463 80 928 1102 4 MP stroke
c36
-462 -23 233 -77 928 1102 3 MP
PP
0 sg
229 100 -462 -23 233 -77 928 1102 4 MP stroke
gr


end %%Color Dict

eplot
%%EndObject

epage
end

showpage

%%Trailer
%%EOF
