%!PS-Adobe-3.0 EPSF-3.0
%%Creator: MATLAB, The Mathworks, Inc. Version 7.8.0.347 (R2009a). Operating System: Linux 2.6.9-89.33.1.ELsmp #1 SMP Thu Dec 2 01:05:15 CST 2010 i686.
%%Title: /home/wassamon/BellShapeFns/shape12.eps
%%CreationDate: 09/18/2012  15:14:54
%%DocumentNeededFonts: Helvetica
%%DocumentProcessColors: Cyan Magenta Yellow Black
%%LanguageLevel: 2
%%Pages: 1
%%BoundingBox:    73   252   521   589
%%EndComments

%%BeginProlog
% MathWorks dictionary
/MathWorks 160 dict begin
% definition operators
/bdef {bind def} bind def
/ldef {load def} bind def
/xdef {exch def} bdef
/xstore {exch store} bdef
% operator abbreviations
/c  /clip ldef
/cc /concat ldef
/cp /closepath ldef
/gr /grestore ldef
/gs /gsave ldef
/mt /moveto ldef
/np /newpath ldef
/cm /currentmatrix ldef
/sm /setmatrix ldef
/rm /rmoveto ldef
/rl /rlineto ldef
/s {show newpath} bdef
/sc {setcmykcolor} bdef
/sr /setrgbcolor ldef
/sg /setgray ldef
/w /setlinewidth ldef
/j /setlinejoin ldef
/cap /setlinecap ldef
/rc {rectclip} bdef
/rf {rectfill} bdef
% page state control
/pgsv () def
/bpage {/pgsv save def} bdef
/epage {pgsv restore} bdef
/bplot /gsave ldef
/eplot {stroke grestore} bdef
% orientation switch
/portraitMode 0 def /landscapeMode 1 def /rotateMode 2 def
% coordinate system mappings
/dpi2point 0 def
% font control
/FontSize 0 def
/FMS {/FontSize xstore findfont [FontSize 0 0 FontSize neg 0 0]
  makefont setfont} bdef
/reencode {exch dup where {pop load} {pop StandardEncoding} ifelse
  exch dup 3 1 roll findfont dup length dict begin
  { 1 index /FID ne {def}{pop pop} ifelse } forall
  /Encoding exch def currentdict end definefont pop} bdef
/isroman {findfont /CharStrings get /Agrave known} bdef
/FMSR {3 1 roll 1 index dup isroman {reencode} {pop pop} ifelse
  exch FMS} bdef
/csm {1 dpi2point div -1 dpi2point div scale neg translate
 dup landscapeMode eq {pop -90 rotate}
  {rotateMode eq {90 rotate} if} ifelse} bdef
% line types: solid, dotted, dashed, dotdash
/SO { [] 0 setdash } bdef
/DO { [.5 dpi2point mul 4 dpi2point mul] 0 setdash } bdef
/DA { [6 dpi2point mul] 0 setdash } bdef
/DD { [.5 dpi2point mul 4 dpi2point mul 6 dpi2point mul 4
  dpi2point mul] 0 setdash } bdef
% macros for lines and objects
/L {lineto stroke} bdef
/MP {3 1 roll moveto 1 sub {rlineto} repeat} bdef
/AP {{rlineto} repeat} bdef
/PDlw -1 def
/W {/PDlw currentlinewidth def setlinewidth} def
/PP {closepath eofill} bdef
/DP {closepath stroke} bdef
/MR {4 -2 roll moveto dup  0 exch rlineto exch 0 rlineto
  neg 0 exch rlineto closepath} bdef
/FR {MR stroke} bdef
/PR {MR fill} bdef
/L1i {{currentfile picstr readhexstring pop} image} bdef
/tMatrix matrix def
/MakeOval {newpath tMatrix currentmatrix pop translate scale
0 0 1 0 360 arc tMatrix setmatrix} bdef
/FO {MakeOval stroke} bdef
/PO {MakeOval fill} bdef
/PD {currentlinewidth 2 div 0 360 arc fill
   PDlw -1 eq not {PDlw w /PDlw -1 def} if} def
/FA {newpath tMatrix currentmatrix pop translate scale
  0 0 1 5 -2 roll arc tMatrix setmatrix stroke} bdef
/PA {newpath tMatrix currentmatrix pop	translate 0 0 moveto scale
  0 0 1 5 -2 roll arc closepath tMatrix setmatrix fill} bdef
/FAn {newpath tMatrix currentmatrix pop translate scale
  0 0 1 5 -2 roll arcn tMatrix setmatrix stroke} bdef
/PAn {newpath tMatrix currentmatrix pop translate 0 0 moveto scale
  0 0 1 5 -2 roll arcn closepath tMatrix setmatrix fill} bdef
/vradius 0 def /hradius 0 def /lry 0 def
/lrx 0 def /uly 0 def /ulx 0 def /rad 0 def
/MRR {/vradius xdef /hradius xdef /lry xdef /lrx xdef /uly xdef
  /ulx xdef newpath tMatrix currentmatrix pop ulx hradius add uly
  vradius add translate hradius vradius scale 0 0 1 180 270 arc 
  tMatrix setmatrix lrx hradius sub uly vradius add translate
  hradius vradius scale 0 0 1 270 360 arc tMatrix setmatrix
  lrx hradius sub lry vradius sub translate hradius vradius scale
  0 0 1 0 90 arc tMatrix setmatrix ulx hradius add lry vradius sub
  translate hradius vradius scale 0 0 1 90 180 arc tMatrix setmatrix
  closepath} bdef
/FRR {MRR stroke } bdef
/PRR {MRR fill } bdef
/MlrRR {/lry xdef /lrx xdef /uly xdef /ulx xdef /rad lry uly sub 2 div def
  newpath tMatrix currentmatrix pop ulx rad add uly rad add translate
  rad rad scale 0 0 1 90 270 arc tMatrix setmatrix lrx rad sub lry rad
  sub translate rad rad scale 0 0 1 270 90 arc tMatrix setmatrix
  closepath} bdef
/FlrRR {MlrRR stroke } bdef
/PlrRR {MlrRR fill } bdef
/MtbRR {/lry xdef /lrx xdef /uly xdef /ulx xdef /rad lrx ulx sub 2 div def
  newpath tMatrix currentmatrix pop ulx rad add uly rad add translate
  rad rad scale 0 0 1 180 360 arc tMatrix setmatrix lrx rad sub lry rad
  sub translate rad rad scale 0 0 1 0 180 arc tMatrix setmatrix
  closepath} bdef
/FtbRR {MtbRR stroke } bdef
/PtbRR {MtbRR fill } bdef
/stri 6 array def /dtri 6 array def
/smat 6 array def /dmat 6 array def
/tmat1 6 array def /tmat2 6 array def /dif 3 array def
/asub {/ind2 exch def /ind1 exch def dup dup
  ind1 get exch ind2 get sub exch } bdef
/tri_to_matrix {
  2 0 asub 3 1 asub 4 0 asub 5 1 asub
  dup 0 get exch 1 get 7 -1 roll astore } bdef
/compute_transform {
  dmat dtri tri_to_matrix tmat1 invertmatrix 
  smat stri tri_to_matrix tmat2 concatmatrix } bdef
/ds {stri astore pop} bdef
/dt {dtri astore pop} bdef
/db {2 copy /cols xdef /rows xdef mul dup 3 mul string
  currentfile 
  3 index 0 eq {/ASCIIHexDecode filter}
  {/ASCII85Decode filter 3 index 2 eq {/RunLengthDecode filter} if }
  ifelse exch readstring pop
  dup 0 3 index getinterval /rbmap xdef
  dup 2 index dup getinterval /gbmap xdef
  1 index dup 2 mul exch getinterval /bbmap xdef pop pop}bdef
/it {gs np dtri aload pop moveto lineto lineto cp c
  cols rows 8 compute_transform 
  rbmap gbmap bbmap true 3 colorimage gr}bdef
/il {newpath moveto lineto stroke}bdef
currentdict end def
%%EndProlog

%%BeginSetup
MathWorks begin

0 cap

end
%%EndSetup

%%Page: 1 1
%%BeginPageSetup
%%PageBoundingBox:    73   252   521   589
MathWorks begin
bpage
%%EndPageSetup

%%BeginObject: obj1
bplot

/dpi2point 12 def
portraitMode 0876 7068 csm

    0     0  5376  4034 rc
85 dict begin %Colortable dictionary
/c0 { 0.000000 0.000000 0.000000 sr} bdef
/c1 { 1.000000 1.000000 1.000000 sr} bdef
/c2 { 0.900000 0.000000 0.000000 sr} bdef
/c3 { 0.000000 0.820000 0.000000 sr} bdef
/c4 { 0.000000 0.000000 0.800000 sr} bdef
/c5 { 0.910000 0.820000 0.320000 sr} bdef
/c6 { 1.000000 0.260000 0.820000 sr} bdef
/c7 { 0.000000 0.820000 0.820000 sr} bdef
c0
1 j
1 sg
   0    0 5377 4035 rf
6 w
0 1494 -3213 409 0 -1493 3912 1796 4 MP
PP
3213 -410 0 1494 -3213 409 0 -1493 3912 1796 5 MP stroke
3213 -410 -952 -1384 -3214 410 4865 3180 4 MP
PP
953 1384 3213 -410 -952 -1384 -3214 410 4865 3180 5 MP stroke
0 1493 -953 -1383 0 -1494 4865 3180 4 MP
PP
953 1384 0 1493 -953 -1383 0 -1494 4865 3180 5 MP stroke
4 w
DO
0 sg
1651 3590 mt 4865 3180 L
4865 3180 mt 4865 1686 L
1413 3244 mt 4626 2834 L
4626 2834 mt 4626 1340 L
1175 2898 mt 4388 2488 L
4388 2488 mt 4388  994 L
 937 2552 mt 4150 2142 L
4150 2142 mt 4150  648 L
 699 2206 mt 3912 1796 L
3912 1796 mt 3912  303 L
4865 3180 mt 3912 1796 L
3912 1796 mt 3912  303 L
4222 3262 mt 3270 1878 L
3270 1878 mt 3270  384 L
3579 3344 mt 2627 1960 L
2627 1960 mt 2627  466 L
2936 3426 mt 1984 2042 L
1984 2042 mt 1984  548 L
2293 3508 mt 1341 2124 L
1341 2124 mt 1341  630 L
1651 3590 mt  699 2206 L
 699 2206 mt  699  712 L
 699 2206 mt 3912 1796 L
3912 1796 mt 4865 3180 L
 699 1833 mt 3912 1423 L
3912 1423 mt 4865 2806 L
 699 1459 mt 3912 1049 L
3912 1049 mt 4865 2433 L
 699 1086 mt 3912  676 L
3912  676 mt 4865 2059 L
 699  712 mt 3912  303 L
3912  303 mt 4865 1686 L
SO
6 w
1651 3590 mt  699 2206 L
4865 3180 mt 1651 3590 L
 699 2206 mt  699  712 L
1651 3590 mt 1570 3600 L
%%IncludeResource: font Helvetica
/Helvetica /ISOLatin1Encoding 120 FMSR

1470 3715 mt 
(0) s
1413 3244 mt 1332 3254 L
1132 3369 mt 
(0.5) s
1175 2898 mt 1094 2908 L
 994 3023 mt 
(1) s
 937 2552 mt  856 2562 L
 656 2678 mt 
(1.5) s
 699 2206 mt  618 2216 L
 518 2332 mt 
(2) s
4865 3180 mt 4910 3246 L
4930 3386 mt 
(0) s
4222 3262 mt 4268 3328 L
4287 3468 mt 
(0.1) s
3579 3344 mt 3625 3410 L
3644 3550 mt 
(0.2) s
2936 3426 mt 2982 3492 L
3002 3632 mt 
(0.3) s
2293 3508 mt 2339 3574 L
2359 3714 mt 
(0.4) s
1651 3590 mt 1696 3656 L
1716 3796 mt 
(0.5) s
 699 2206 mt  653 2140 L
 567 2155 mt 
(0) s
 699 1833 mt  653 1766 L
 467 1782 mt 
(0.1) s
 699 1459 mt  653 1393 L
 467 1408 mt 
(0.2) s
 699 1086 mt  653 1019 L
 467 1035 mt 
(0.3) s
 699  712 mt  653  646 L
 467  661 mt 
(0.4) s
gs 699 303 4167 3288 rc
/c8 { 0.000000 0.000000 0.562500 sr} bdef
c8
-252 199 -106 -154 4865 3180 3 MP
PP
0 sg
358 -45 -252 199 -106 -154 4865 3180 4 MP stroke
c8
105 186 -357 13 4759 3026 3 MP
PP
0 sg
252 -199 105 186 -357 13 4759 3026 4 MP stroke
/c9 { 0.000000 0.000000 0.750000 sr} bdef
c9
-106 -154 463 178 4296 2848 3 MP
PP
0 sg
-357 -24 -106 -154 463 178 4296 2848 4 MP stroke
c9
357 -13 106 191 4296 2848 3 MP
PP
0 sg
-463 -178 357 -13 106 191 4296 2848 4 MP stroke
c8
-251 129 -106 -153 4653 2872 3 MP
PP
0 sg
357 24 -251 129 -106 -153 4653 2872 4 MP stroke
/c10 { 0.000000 0.000000 0.812500 sr} bdef
c10
-106 -154 357 59 4190 2660 3 MP
PP
0 sg
-251 95 -106 -154 357 59 4190 2660 4 MP stroke
c8
106 188 -357 -59 4547 2719 3 MP
PP
0 sg
251 -129 106 188 -357 -59 4547 2719 4 MP stroke
c8
-105 -186 357 -46 4150 3271 3 MP
PP
0 sg
-252 232 -105 -186 357 -46 4150 3271 4 MP stroke
c8
-252 68 -105 -154 4441 2565 3 MP
PP
0 sg
357 86 -252 68 -105 -154 4441 2565 4 MP stroke
c8
106 181 -357 -86 4441 2565 3 MP
PP
0 sg
251 -95 106 181 -357 -86 4441 2565 4 MP stroke
c8
-357 -41 252 -232 4150 3271 3 MP
PP
0 sg
105 273 -357 -41 252 -232 4150 3271 4 MP stroke
/c11 { 0.000000 0.000000 0.875000 sr} bdef
c11
-106 -191 357 41 4045 2998 3 MP
PP
0 sg
-251 150 -106 -191 357 41 4045 2998 4 MP stroke
c11
-106 -153 463 243 3873 2168 3 MP
PP
0 sg
-357 -90 -106 -153 463 243 3873 2168 4 MP stroke
c11
358 98 105 145 3873 2168 3 MP
PP
0 sg
-463 -243 358 98 105 145 3873 2168 4 MP stroke
c8
106 166 -358 -98 4336 2411 3 MP
PP
0 sg
252 -68 106 166 -358 -98 4336 2411 4 MP stroke
c9
106 284 -357 -134 4296 2848 3 MP
PP
0 sg
251 -150 106 284 -357 -134 4296 2848 4 MP stroke
/c12 { 0.000000 0.187500 1.000000 sr} bdef
c12
-463 -405 357 134 3939 2714 3 MP
PP
0 sg
106 271 -463 -405 357 134 3939 2714 4 MP stroke
/c13 { 0.000000 0.500000 1.000000 sr} bdef
c13
-106 -188 463 405 3833 2443 3 MP
PP
0 sg
-357 -217 -106 -188 463 405 3833 2443 4 MP stroke
c8
-251 64 -106 -154 4230 2258 3 MP
PP
0 sg
357 90 -251 64 -106 -154 4230 2258 4 MP stroke
c13
-106 -181 357 217 3833 2443 3 MP
PP
0 sg
-251 -36 -106 -181 357 217 3833 2443 4 MP stroke
c8
-358 -76 -105 -273 4150 3271 3 MP
PP
0 sg
463 349 -358 -76 -105 -273 4150 3271 4 MP stroke
c8
106 394 -463 -349 4150 3271 3 MP
PP
0 sg
357 -45 106 394 -463 -349 4150 3271 4 MP stroke
c10
-106 -154 357 55 3767 2049 3 MP
PP
0 sg
-251 99 -106 -154 357 55 3767 2049 4 MP stroke
c8
106 119 -357 -55 4124 2104 3 MP
PP
0 sg
251 -64 106 119 -357 -55 4124 2104 4 MP stroke
c11
-357 -67 -106 -119 3873 2168 3 MP
PP
0 sg
463 186 -357 -67 -106 -119 3873 2168 4 MP stroke
c10
-251 20 -106 -87 3767 2049 3 MP
PP
0 sg
357 67 -251 20 -106 -87 3767 2049 4 MP stroke
/c14 { 0.000000 0.125000 1.000000 sr} bdef
c14
357 213 106 -27 3410 1982 3 MP
PP
0 sg
-463 -186 357 213 106 -27 3410 1982 4 MP stroke
/c15 { 0.000000 0.812500 1.000000 sr} bdef
c15
357 269 106 171 3621 2039 3 MP
PP
0 sg
-463 -440 357 269 106 171 3621 2039 4 MP stroke
/c16 { 0.000000 0.000000 0.937500 sr} bdef
c16
463 440 -357 -274 3978 2313 3 MP
PP
0 sg
-106 -166 463 440 -357 -274 3978 2313 4 MP stroke
c13
-357 -269 251 36 3833 2443 3 MP
PP
0 sg
106 233 -357 -269 251 36 3833 2443 4 MP stroke
c12
-106 -284 358 76 3687 2922 3 MP
PP
0 sg
-252 208 -106 -284 358 76 3687 2922 4 MP stroke
/c17 { 0.000000 0.000000 0.625000 sr} bdef
c17
-106 -154 357 -12 3661 1962 3 MP
PP
0 sg
-251 166 -106 -154 357 -12 3661 1962 4 MP stroke
c8
106 87 -357 12 4018 1950 3 MP
PP
0 sg
251 -99 106 87 -357 12 4018 1950 4 MP stroke
c11
357 274 -252 -129 3873 2168 3 MP
PP
0 sg
-105 -145 357 274 -252 -129 3873 2168 4 MP stroke
c12
105 409 -357 -201 3939 2714 3 MP
PP
0 sg
252 -208 105 409 -357 -201 3939 2714 4 MP stroke
/c18 { 0.000000 0.875000 1.000000 sr} bdef
c18
-463 -569 357 201 3582 2513 3 MP
PP
0 sg
106 368 -463 -569 357 201 3582 2513 4 MP stroke
c12
-357 -298 -106 -271 3939 2714 3 MP
PP
0 sg
463 569 -357 -298 -106 -271 3939 2714 4 MP stroke
/c19 { 0.000000 0.625000 1.000000 sr} bdef
c19
252 129 105 84 3516 1955 3 MP
PP
0 sg
-357 -213 252 129 105 84 3516 1955 4 MP stroke
/c20 { 0.437500 1.000000 0.562500 sr} bdef
c20
-106 -233 357 298 3476 2145 3 MP
PP
0 sg
-251 -65 -106 -233 357 298 3476 2145 4 MP stroke
/c21 { 0.000000 0.562500 1.000000 sr} bdef
c21
357 -46 106 535 3330 2827 3 MP
PP
0 sg
-463 -489 357 -46 106 535 3330 2827 4 MP stroke
c8
-357 -95 -106 -394 3793 3316 3 MP
PP
0 sg
463 489 -357 -95 -106 -394 3793 3316 4 MP stroke
c19
-252 -141 -106 27 3516 1955 3 MP
PP
0 sg
358 114 -252 -141 -106 27 3516 1955 4 MP stroke
c15
-358 -114 -105 -84 3621 2039 3 MP
PP
0 sg
463 198 -358 -114 -105 -84 3621 2039 4 MP stroke
/c22 { 0.062500 1.000000 0.937500 sr} bdef
c22
357 286 106 -88 3158 1841 3 MP
PP
0 sg
-463 -198 357 286 106 -88 3158 1841 4 MP stroke
/c23 { 0.000000 0.750000 1.000000 sr} bdef
c23
-357 -286 -106 -171 3727 2210 3 MP
PP
0 sg
463 457 -357 -286 -106 -171 3727 2210 4 MP stroke
/c24 { 0.687500 1.000000 0.312500 sr} bdef
c24
357 337 106 120 3264 1753 3 MP
PP
0 sg
-463 -457 357 337 106 120 3264 1753 4 MP stroke
c20
-357 -337 251 65 3476 2145 3 MP
PP
0 sg
106 272 -357 -337 251 65 3476 2145 4 MP stroke
/c25 { 0.625000 1.000000 0.375000 sr} bdef
c25
357 95 105 540 3225 2287 3 MP
PP
0 sg
-462 -635 357 95 105 540 3225 2287 4 MP stroke
c12
-357 -226 -105 -409 3687 2922 3 MP
PP
0 sg
462 635 -357 -226 -105 -409 3687 2922 4 MP stroke
c20
357 226 -251 142 3476 2145 3 MP
PP
0 sg
-106 -368 357 226 -251 142 3476 2145 4 MP stroke
/c26 { 1.000000 0.562500 0.000000 sr} bdef
c26
251 -142 106 447 3119 1840 3 MP
PP
0 sg
-357 -305 251 -142 106 447 3119 1840 4 MP stroke
c24
106 -36 -357 -131 3264 1753 3 MP
PP
0 sg
251 167 106 -36 -357 -131 3264 1753 4 MP stroke
/c27 { 1.000000 0.812500 0.000000 sr} bdef
c27
-106 88 357 131 2907 1622 3 MP
PP
0 sg
-251 -219 -106 88 357 131 2907 1622 4 MP stroke
/c28 { 0.750000 1.000000 0.250000 sr} bdef
c28
463 559 -357 -287 3370 1873 3 MP
PP
0 sg
-106 -272 463 559 -357 -287 3370 1873 4 MP stroke
/c29 { 1.000000 0.312500 0.000000 sr} bdef
c29
357 305 106 254 3013 1586 3 MP
PP
0 sg
-463 -559 357 305 106 254 3013 1586 4 MP stroke
c8
-106 -535 357 -45 3079 3407 3 MP
PP
0 sg
-251 580 -106 -535 357 -45 3079 3407 4 MP stroke
c29
-106 -120 357 287 3013 1586 3 MP
PP
0 sg
-251 -167 -106 -120 357 287 3013 1586 4 MP stroke
/c30 { 0.000000 0.937500 1.000000 sr} bdef
c30
251 -580 106 676 2973 2731 3 MP
PP
0 sg
-357 -96 251 -580 106 676 2973 2731 4 MP stroke
c30
-105 -540 357 96 2973 2731 3 MP
PP
0 sg
-252 444 -105 -540 357 96 2973 2731 4 MP stroke
/c31 { 1.000000 0.687500 0.000000 sr} bdef
c31
252 -444 106 652 2867 2079 3 MP
PP
0 sg
-358 -208 252 -444 106 652 2867 2079 4 MP stroke
c25
105 474 -463 -682 3225 2287 3 MP
PP
0 sg
358 208 105 474 -463 -682 3225 2287 4 MP stroke
c25
-357 -235 -106 -447 3225 2287 3 MP
PP
0 sg
463 682 -357 -235 -106 -447 3225 2287 4 MP stroke
c29
-251 -158 -106 36 3013 1586 3 MP
PP
0 sg
357 122 -251 -158 -106 36 3013 1586 4 MP stroke
c26
-357 -122 -106 -254 3119 1840 3 MP
PP
0 sg
463 376 -357 -122 -106 -254 3119 1840 4 MP stroke
/c32 { 0.875000 0.000000 0.000000 sr} bdef
c32
357 235 106 141 2656 1464 3 MP
PP
0 sg
-463 -376 357 235 106 141 2656 1464 4 MP stroke
/c33 { 0.312500 1.000000 0.687500 sr} bdef
c33
357 -46 106 802 2616 2651 3 MP
PP
0 sg
-463 -756 357 -46 106 802 2616 2651 4 MP stroke
c33
-106 -676 463 756 2616 2651 3 MP
PP
0 sg
-357 -80 -106 -676 463 756 2616 2651 4 MP stroke
c33
-106 -652 357 80 2616 2651 3 MP
PP
0 sg
-251 572 -106 -652 357 80 2616 2651 4 MP stroke
/c34 { 0.812500 0.000000 0.000000 sr} bdef
c34
357 147 -252 327 2762 1605 3 MP
PP
0 sg
-105 -474 357 147 -252 327 2762 1605 4 MP stroke
c31
106 719 -357 -147 2867 2079 3 MP
PP
0 sg
251 -572 106 719 -357 -147 2867 2079 4 MP stroke
c32
357 89 -251 52 2656 1464 3 MP
PP
0 sg
-106 -141 357 89 -251 52 2656 1464 4 MP stroke
/c35 { 0.500000 0.000000 0.000000 sr} bdef
c35
252 -327 105 416 2405 1516 3 MP
PP
0 sg
-357 -89 252 -327 105 416 2405 1516 4 MP stroke
c8
-106 -802 357 -45 2365 3498 3 MP
PP
0 sg
-251 847 -106 -802 357 -45 2365 3498 4 MP stroke
c33
106 892 -357 -45 2616 2651 3 MP
PP
0 sg
251 -847 106 892 -357 -45 2616 2651 4 MP stroke
c33
-357 -43 -106 -719 2616 2651 3 MP
PP
0 sg
463 762 -357 -43 -106 -719 2616 2651 4 MP stroke
/c36 { 0.937500 0.000000 0.000000 sr} bdef
c36
357 45 106 717 2153 1889 3 MP
PP
0 sg
-463 -762 357 45 106 717 2153 1889 4 MP stroke
/c37 { 1.000000 0.187500 0.000000 sr} bdef
c37
-252 373 -105 -416 2510 1932 3 MP
PP
0 sg
357 43 -252 373 -105 -416 2510 1932 4 MP stroke
c8
-251 938 -106 -892 2365 3498 3 MP
PP
0 sg
357 -46 -251 938 -106 -892 2365 3498 4 MP stroke
c36
357 -7 -251 724 2153 1889 3 MP
PP
0 sg
-106 -717 357 -7 -251 724 2153 1889 4 MP stroke
c8
-357 7 251 -938 2008 3544 3 MP
PP
0 sg
106 931 -357 7 251 -938 2008 3544 4 MP stroke
c8
-251 977 -106 -931 2008 3544 3 MP
PP
0 sg
357 -46 -251 977 -106 -931 2008 3544 4 MP stroke
gr


end %%Color Dict

eplot
%%EndObject

epage
end

showpage

%%Trailer
%%EOF
